<svg width="16" height="9" viewBox="0 0 16 9" fill="none" xmlns="http://www.w3.org/2000/svg">
<path fill-rule="evenodd" clip-rule="evenodd" d="M2.75938 8.56697C2.31312 9.01323 1.58958 9.01323 1.14332 8.56697C0.69706 8.12071 0.697059 7.39718 1.14332 6.95091L7.76573 0.3285C7.89494 0.199298 8.10442 0.199298 8.23362 0.3285L14.856 6.95091C15.3023 7.39717 15.3023 8.12071 14.856 8.56697C14.4098 9.01323 13.6862 9.01323 13.24 8.56697L8.17576 3.50275C8.07851 3.40551 7.92084 3.40551 7.8236 3.50275L2.75938 8.56697Z" fill="#E6A769"/>
</svg>
